\relax 
\babel@aux{english}{}
\@writefile{toc}{\contentsline {section}{\numberline {1}T\IeC {\'o}m T\IeC {\'\abreve }t}{3}}
\@writefile{toc}{\contentsline {section}{\numberline {2}C\IeC {\ohorn } s\IeC {\h \ohorn } l\IeC {\'y} thuy\IeC {\'\ecircumflex }t}{3}}
\@writefile{toc}{\contentsline {subsection}{\numberline {2.1}Gi\IeC {\'\ohorn }i thi\IeC {\d \ecircumflex }u v\IeC {\`\ecircumflex } SQL injection}{3}}
\@writefile{lof}{\contentsline {figure}{\numberline {1}{\ignorespaces SQL Most Revalent Vulnerability 2015\relax }}{3}}
\@writefile{lof}{\contentsline {figure}{\numberline {2}{\ignorespaces How web application work\relax }}{5}}
\@writefile{toc}{\contentsline {subsection}{\numberline {2.2}C\IeC {\'a}c l\IeC {\~\ocircumflex }i th\IeC {\uhorn }\IeC {\`\ohorn }ng g\IeC {\d \abreve }p}{6}}
\@writefile{toc}{\contentsline {subsubsection}{\numberline {2.2.1}Kh\IeC {\^o}ng ki\IeC {\h \ecircumflex }m tra k\IeC {\'y} t\IeC {\d \uhorn } tho\IeC {\'a}t truy v\IeC {\'\acircumflex }n}{6}}
\@writefile{toc}{\contentsline {subsubsection}{\numberline {2.2.2}X\IeC {\h \uhorn } l\IeC {\'y} kh\IeC {\^o}ng \IeC {\dj }\IeC {\'u}ng ki\IeC {\h \ecircumflex }u}{7}}
\@writefile{toc}{\contentsline {subsubsection}{\numberline {2.2.3}Blind SQL injection}{8}}
\@writefile{toc}{\contentsline {subsection}{\numberline {2.3}M\IeC {\d \ocircumflex }t s\IeC {\'\ocircumflex } d\IeC {\d a}ng t\IeC {\'\acircumflex }n c\IeC {\^o}ng b\IeC {\`\abreve }ng SQL injection th\IeC {\uhorn }\IeC {\`\ohorn }ng g\IeC {\d \abreve }p}{8}}
\@writefile{toc}{\contentsline {subsubsection}{\numberline {2.3.1}V\IeC {\uhorn }\IeC {\d \ohorn }t qua \IeC {\dj }\IeC {\u a}ng nh\IeC {\d \acircumflex }p}{8}}
\@writefile{lof}{\contentsline {figure}{\numberline {3}{\ignorespaces Understading HTTP Post and Request\relax }}{9}}
\@writefile{toc}{\contentsline {subsubsection}{\numberline {2.3.2}S\IeC {\h \uhorn } d\IeC {\d u}ng c\IeC {\^a}u l\IeC {\d \ecircumflex }nh SELECT}{9}}
\@writefile{toc}{\contentsline {subsubsection}{\numberline {2.3.3}s\IeC {\h \uhorn } d\IeC {\d u}ng c\IeC {\^a}u l\IeC {\d \ecircumflex }nh INSERT}{10}}
\@writefile{toc}{\contentsline {subsubsection}{\numberline {2.3.4}S\IeC {\h \uhorn } d\IeC {\d u}ng c\IeC {\'a}c stored-procedures}{11}}
\@writefile{toc}{\contentsline {subsubsection}{\numberline {2.3.5}C\IeC {\'a}c b\IeC {\uhorn }\IeC {\'\ohorn }c c\IeC {\ohorn } b\IeC {\h a}n \IeC {\dj }\IeC {\h \ecircumflex } t\IeC {\'\acircumflex }n c\IeC {\^o}ng b\IeC {\`\abreve }ng SQL inject}{11}}
\@writefile{toc}{\contentsline {subsection}{\numberline {2.4}C\IeC {\'a}ch ph\IeC {\`o}ng ch\IeC {\'\ocircumflex }ng}{11}}
\@writefile{lof}{\contentsline {figure}{\numberline {4}{\ignorespaces SQL injection tools\relax }}{12}}
\@writefile{toc}{\contentsline {subsection}{\numberline {2.5}Gi\IeC {\'\ohorn }i thi\IeC {\d \ecircumflex }u v\IeC {\`\ecircumflex } sqlmap}{12}}
\@writefile{toc}{\contentsline {subsubsection}{\numberline {2.5.1}Gi\IeC {\'\ohorn }i thi\IeC {\d \ecircumflex }u}{12}}
\@writefile{toc}{\contentsline {subsubsection}{\numberline {2.5.2}T\IeC {\'\i }nh n\IeC {\u a}ng}{13}}
\@writefile{toc}{\contentsline {section}{\numberline {3}Demo c\IeC {\ohorn } b\IeC {\h a}n v\IeC {\`\ecircumflex } l\IeC {\~\ocircumflex }i SQL Injection}{14}}
\@writefile{toc}{\contentsline {subsection}{\numberline {3.1}T\IeC {\`\i }m m\IeC {\d \ocircumflex }t trang web c\IeC {\'o} th\IeC {\h \ecircumflex } b\IeC {\d i} t\IeC {\'\acircumflex }n c\IeC {\^o}ng b\IeC {\h \ohorn }i k\IeC {\~y} thu\IeC {\d \acircumflex }t n\IeC {\`a}y.}{14}}
\@writefile{lof}{\contentsline {figure}{\numberline {5}{\ignorespaces L\IeC {\~\ocircumflex }i tr\IeC {\h a} v\IeC {\`\ecircumflex }\relax }}{16}}
\@writefile{toc}{\contentsline {subsection}{\numberline {3.2}Xu\IeC {\'\acircumflex }t c\IeC {\'a}c database c\IeC {\'o} trong trang web.}{17}}
\@writefile{lof}{\contentsline {figure}{\numberline {6}{\ignorespaces \IeC {\h A}nh minh h\IeC {\d o}a\relax }}{17}}
\@writefile{toc}{\contentsline {subsection}{\numberline {3.3}Xu\IeC {\'\acircumflex }t t\IeC {\^e}n t\IeC {\'\acircumflex }t c\IeC {\h a} c\IeC {\'a}c b\IeC {\h a}ng c\IeC {\'o} trong database}{18}}
\@writefile{lof}{\contentsline {figure}{\numberline {7}{\ignorespaces \IeC {\h A}nh minh h\IeC {\d o}a 2\relax }}{18}}
\@writefile{toc}{\contentsline {subsection}{\numberline {3.4}Xu\IeC {\'\acircumflex }t t\IeC {\'\acircumflex }t c\IeC {\h a} c\IeC {\'a}c c\IeC {\d \ocircumflex }t c\IeC {\'o} trong b\IeC {\h a}ng.}{18}}
\@writefile{lof}{\contentsline {figure}{\numberline {8}{\ignorespaces \IeC {\h A}nh minh h\IeC {\d o}a 3\relax }}{19}}
\@writefile{toc}{\contentsline {subsection}{\numberline {3.5}Xu\IeC {\'\acircumflex }t c\IeC {\'a}c tr\IeC {\uhorn }\IeC {\`\ohorn }ng d\IeC {\~\uhorn } li\IeC {\d \ecircumflex }u trong b\IeC {\h a}ng ra.}{19}}
\@writefile{lof}{\contentsline {figure}{\numberline {9}{\ignorespaces \IeC {\h A}nh minh h\IeC {\d o}a 4 \relax }}{19}}
\@writefile{toc}{\contentsline {section}{\numberline {4}Ph\IeC {\^a}n t\IeC {\'\i }ch v\IeC {\`a} k\IeC {\'\ecircumflex }t lu\IeC {\d \acircumflex }n}{20}}
\@writefile{toc}{\contentsline {section}{\numberline {5}H\IeC {\uhorn }\IeC {\'\ohorn }ng ph\IeC {\'a}t tri\IeC {\h \ecircumflex }n}{20}}
\@writefile{toc}{\contentsline {section}{\numberline {6}Tham kh\IeC {\h a}o}{20}}
\@writefile{toc}{\contentsline {section}{\numberline {7}ph\IeC {\d u} l\IeC {\d u}c 1:}{20}}
